[
    {
        "id": "1",
        "name": "Rihanna",
        "images": [
            "https://media.foxbusiness.com/BrightCove/854081161001/201912/3914/854081161001_6115733520001_6115730123001-vs.jpg",
            "https://media.vogue.co.uk/photos/5e81bc54138bdd00089677da/16:9/w_1920,c_limit/RihEx-01.jpg"
        ],
        "imagecredit": "somewhere-magazine.com",
        "socials": {
            "twitter": "@rihanna",
            "instagram": "badgalriri"
        },
        "ontour": false,
        "bio": "Robyn Rihanna Fenty is a Barbadian singer, songwriter, actress, and businesswoman, who has been recognized for embracing various musical styles and reinventing her image throughout her career. - Wikipedia"
    },
    {
        "id": "2",
        "name": "Katy Perry",
        "images": [
            "https://i.dailymail.co.uk/1s/2020/05/07/23/28136198-0-image-a-155_1588890468937.jpg",
            "https://media1.popsugar-assets.com/files/thumbor/25vKMxiLytpN4VRKvHzg5LWEvqA/fit-in/728xorig/filters:format_auto-!!-:strip_icc-!!-/2019/05/31/735/n/1922153/d94d3c14f96abd3d_12/i/Katy-Perry-Never-Really-Over-Music-Video-Beauty-Looks.jpg",
            "https://s3-us-east-2.amazonaws.com/redefined/wp-content/uploads/2019/02/14110407/KatyPerry_Screengrab.png"
        ],
        "imagecredit": "clickorlando.com",
        "socials": {
            "twitter": "@katyperry",
            "instagram": "katyperry"
        },
        "ontour": false,
        "bio": "Katheryn Elizabeth Hudson, known by her stage name Katy Perry, is an American singer, songwriter and television judge. After singing in church during her childhood, she pursued a career in gospel music as a teenager. - Wikipedia"
    },
    {
        "id": "3",
        "name": "The Weeknd",
        "images": [
            "https://static.highsnobiety.com/thumbor/GYp1uRfBdN4nMhewMxdaV1nxv7k=/fit-in/1200x720/smart/static.highsnobiety.com/wp-content/uploads/2019/12/10190326/the-weeknd-heartless-no-1-billboard-hot-100-00.jpg",
            "https://media.newsmonkey.be/20200220120041/The-Weeknd-komt-in-oktober-naar-het-Antwerps-Sportpaleis.jpg",
            "https://media.nu.nl/m/upfxik7an2ws_wd1280.jpg/the-weeknd-geeft-op-27-oktober-een-concert-in-ziggo-dome.jpg"
        ],
        "imagecredit": "backstage.info",
        "socials": {
            "twitter": "@theweeknd",
            "instagram": "theweeknd"
        },
        "ontour": true,
        "bio": "Abel Makkonen Tesfaye, known professionally as The Weeknd, is a Canadian singer, songwriter, and record producer. He began his recording career in 2010, anonymously uploading several songs to YouTube. - Wikipedia"
    },
    {
        "id": "4",
        "name": "Dua Lipa",
        "images": [
            "https://www.kiss1027.fm/wp-content/uploads/sites/44/2020/03/Dua-Lipa-Future-Nostalgia.jpg",
            "https://media.pitchfork.com/photos/5de51d309669180008bb6244/16:9/w_1280,c_limit/Dua-Lipa.jpg",
            "https://hips.hearstapps.com/hmg-prod.s3.amazonaws.com/images/screen-shot-2020-03-08-at-13-13-02-1583673311.png"
        ],
        "imagecredit": "headtopics.com",
        "socials": {
            "twitter": "@dualipa",
            "instagram": "dualipa"
        },
        "ontour": true,
        "bio": "Dua Lipa is an English singer, songwriter and model. After working as a model, she signed with Warner Music Group in 2015 and released her self-titled debut album in 2017. - Wikipedia"
    },
    {
        "id": "5",
        "name": "Lauv",
        "images": [
            "https://cdn.dnaindia.com/sites/default/files/styles/full/public/2019/05/14/823590-lauv-051519.jpg"
        ],
        "imagecredit": "dnaindia.com",
        "socials": {
            "twitter": "@lauv",
            "instagram": "lauv"
        },
        "ontour": true,
        "bio": "Ari Staprans Leff, known professionally as Lauv, is an American singer, songwriter and record producer based in Los Angeles. His debut EP Lost in the Light was released in 2015 and his compilation album I Met You When I Was 18 was released in 2018. - Wikipedia"
    },
    {
        "id": "6",
        "name": "Sia",
        "images": [
            "https://coolaruba.com/wp-content/uploads/2018/05/Labrinth-Sia-Diplo.jpg",
            "https://cdn.pastemagazine.com/www/articles/2016/11/02/SiaGallery_Main.jpg",
            "https://encrypted-tbn0.gstatic.com/images?q=tbn%3AANd9GcRVRqgEUoHcNrd_6YuAEKsdrYb4lVcYzYfPGXi_Da40LlKPJdI4&usqp=CAU"
        ],
        "imagecredit": "coolaruba.com",
        "socials": {
            "twitter": "@sia",
            "instagram": "siamusic"
        },
        "ontour": false,
        "bio": "Sia Kate Isobelle Furler is an Australian singer, songwriter, voice actress and music video director. She started her career as a singer in the acid jazz band Crisp in the mid-1990s in Adelaide. In 1997, when Crisp disbanded, she released her debut studio album titled OnlySee in Australia - Wikipadia"
    },
    {
        "id": "7",
        "name": "Mika",
        "images": [
            "https://www.nme.com/wp-content/uploads/2017/10/GettyImages-77626946-696x442.jpg",
            "https://cdn1.umg3.net/78/files/2014/03/mika-biog.jpg",
            "https://img.nrj.fr/LOCIhdyGKSeh-TozTq2AcyoBTm0=/800x450/smart/http%3A%2F%2Fimage-api.nrj.fr%2Fhttp%2Fmedia.nrj.fr%2F436x327%2F2015%2F09%2Fmika-jpg-9435480.jpg"
        ],
        "imagecredit": "nme.com",
        "socials": {
            "twitter": "@mikasounds",
            "instagram": "mikainstagram"
        },
        "ontour": true,
        "bio": "Michael Holbrook Penniman Jr., known by his stage name Mika, is a Lebanese-born British recording artist and singer-songwriter. After recording his first extended play, Dodgy Holiday, Mika was named the number-one predicted breakthrough act of 2007 in an annual BBC poll of music critics, Sound of 2007. - Wikipedia"
    },
    {
        "id": "8",
        "name": "Lady Gaga",
        "images": [
            "https://attitude.co.uk/media/images/2020/04/gaga.jpg.750x400_q85_box-0%2C0%2C750%2C400_crop_detail.jpg",
            "https://image.iol.co.za/image/1/process/1080x366?source=https://inm-baobab-prod-eu-west-1.s3.amazonaws.com/public/inm/iol/media/image/2020/04/23/47071489/896283_216582259736159_681745142927721497_n.jpg&operation=CROP&offset=0x98&resize=1077x606",
            "https://i.ytimg.com/vi/txXwg712zw4/maxresdefault.jpg"
        ],
        "imagecredit": "attitude.co.uk",
        "socials": {
            "twitter": "@ladygaga",
            "instagram": "ladygaga"
        },
        "ontour": true,
        "bio": "Stefani Joanne Angelina Germanotta, known by her stage name Lady Gaga, is an American singer, songwriter, and actress. She is known for reinventing herself throughout her career and for her versatility in numerous areas of the entertainment industry. - Wikipedia"
    }
]